﻿[
  {
    "Name": "milk",
    "KcalPerGram": 55
  },
  {
    "Name": "chicken",
    "KcalPerGram": 161
  },
  {
    "Name": "turkey",
    "KcalPerGram": 192
  },
  {
    "Name": "apple",
    "KcalPerGram": 48
  },
  {
    "Name": "banana",
    "KcalPerGram": 87
  },
  {
    "Name": "mango",
    "KcalPerGram": 69
  },
  {
    "Name": "omelet",
    "KcalPerGram": 181
  },
  {
    "Name": "honey",
    "KcalPerGram": 312
  }

]
  



